Lab5/simulation/qsim/Lab5.msim.vcd
$comment
	File created using the following command:
		vcd file Lab5.msim.vcd -direction
$end
$date
	Thu Oct 31 17:00:38 2019
$end
$version
	ModelSim Version 10.5b
$end
$timescale
	1ps
$end

$scope module Lab5_vlg_vec_tst $end
$var reg 9 ! SW [8:0] $end
$var wire 1 " C4 $end
$var wire 1 # HEX0 [6] $end
$var wire 1 $ HEX0 [5] $end
$var wire 1 % HEX0 [4] $end
$var wire 1 & HEX0 [3] $end
$var wire 1 ' HEX0 [2] $end
$var wire 1 ( HEX0 [1] $end
$var wire 1 ) HEX0 [0] $end
$var wire 1 * HEX1 [6] $end
$var wire 1 + HEX1 [5] $end
$var wire 1 , HEX1 [4] $end
$var wire 1 - HEX1 [3] $end
$var wire 1 . HEX1 [2] $end
$var wire 1 / HEX1 [1] $end
$var wire 1 0 HEX1 [0] $end
$var wire 1 1 HEX2 [6] $end
$var wire 1 2 HEX2 [5] $end
$var wire 1 3 HEX2 [4] $end
$var wire 1 4 HEX2 [3] $end
$var wire 1 5 HEX2 [2] $end
$var wire 1 6 HEX2 [1] $end
$var wire 1 7 HEX2 [0] $end
$var wire 1 8 Sout [3] $end
$var wire 1 9 Sout [2] $end
$var wire 1 : Sout [1] $end
$var wire 1 ; Sout [0] $end
$var wire 1 < V $end

$scope module i1 $end
$var wire 1 = gnd $end
$var wire 1 > vcc $end
$var wire 1 ? unknown $end
$var tri1 1 @ devclrn $end
$var tri1 1 A devpor $end
$var tri1 1 B devoe $end
$var wire 1 C C4~output_o $end
$var wire 1 D V~output_o $end
$var wire 1 E HEX0[6]~output_o $end
$var wire 1 F HEX0[5]~output_o $end
$var wire 1 G HEX0[4]~output_o $end
$var wire 1 H HEX0[3]~output_o $end
$var wire 1 I HEX0[2]~output_o $end
$var wire 1 J HEX0[1]~output_o $end
$var wire 1 K HEX0[0]~output_o $end
$var wire 1 L HEX1[6]~output_o $end
$var wire 1 M HEX1[5]~output_o $end
$var wire 1 N HEX1[4]~output_o $end
$var wire 1 O HEX1[3]~output_o $end
$var wire 1 P HEX1[2]~output_o $end
$var wire 1 Q HEX1[1]~output_o $end
$var wire 1 R HEX1[0]~output_o $end
$var wire 1 S HEX2[6]~output_o $end
$var wire 1 T HEX2[5]~output_o $end
$var wire 1 U HEX2[4]~output_o $end
$var wire 1 V HEX2[3]~output_o $end
$var wire 1 W HEX2[2]~output_o $end
$var wire 1 X HEX2[1]~output_o $end
$var wire 1 Y HEX2[0]~output_o $end
$var wire 1 Z Sout[3]~output_o $end
$var wire 1 [ Sout[2]~output_o $end
$var wire 1 \ Sout[1]~output_o $end
$var wire 1 ] Sout[0]~output_o $end
$var wire 1 ^ SW[5]~input_o $end
$var wire 1 _ SW[1]~input_o $end
$var wire 1 ` SW[8]~input_o $end
$var wire 1 a SW[4]~input_o $end
$var wire 1 b SW[0]~input_o $end
$var wire 1 c inst|one|one|Cout~0_combout $end
$var wire 1 d inst|one|two|Cout~0_combout $end
$var wire 1 e SW[6]~input_o $end
$var wire 1 f SW[2]~input_o $end
$var wire 1 g inst|two|one|Cout~0_combout $end
$var wire 1 h SW[3]~input_o $end
$var wire 1 i SW[7]~input_o $end
$var wire 1 j inst|two|two|Cout~0_combout $end
$var wire 1 k inst|V~0_combout $end
$var wire 1 l inst|two|one|Sout~combout $end
$var wire 1 m inst|two|two|Sout~combout $end
$var wire 1 n inst|one|one|Sout~0_combout $end
$var wire 1 o inst|one|two|Sout~combout $end
$var wire 1 p inst3|WideOr0~0_combout $end
$var wire 1 q inst3|WideOr1~0_combout $end
$var wire 1 r inst3|WideOr2~0_combout $end
$var wire 1 s inst3|WideOr3~0_combout $end
$var wire 1 t inst3|WideOr4~0_combout $end
$var wire 1 u inst3|WideOr5~0_combout $end
$var wire 1 v inst3|WideOr6~0_combout $end
$var wire 1 w inst5|WideOr0~0_combout $end
$var wire 1 x inst5|WideOr1~0_combout $end
$var wire 1 y inst5|WideOr2~0_combout $end
$var wire 1 z inst5|WideOr3~0_combout $end
$var wire 1 { inst5|WideOr4~0_combout $end
$var wire 1 | inst5|WideOr5~0_combout $end
$var wire 1 } inst5|WideOr6~0_combout $end
$var wire 1 ~ inst4|WideOr0~0_combout $end
$var wire 1 !! inst4|WideOr1~0_combout $end
$var wire 1 "! inst4|WideOr2~0_combout $end
$var wire 1 #! inst4|WideOr3~0_combout $end
$var wire 1 $! inst4|WideOr4~0_combout $end
$var wire 1 %! inst4|WideOr5~0_combout $end
$var wire 1 &! inst4|WideOr6~0_combout $end
$upscope $end
$upscope $end
$enddefinitions $end
#0
$dumpvars
b10100000 !
0"
0)
0(
0'
1&
0%
0$
0#
00
0/
0.
1-
0,
0+
0*
07
06
05
04
03
02
11
0;
1:
09
18
0<
0=
1>
x?
1@
1A
1B
0C
0D
0E
0F
0G
1H
0I
0J
0K
0L
0M
0N
1O
0P
0Q
0R
1S
0T
0U
0V
0W
0X
0Y
1Z
0[
1\
0]
1^
0_
0`
0a
0b
0c
0d
0e
0f
0g
0h
1i
0j
0k
0l
1m
0n
1o
1p
0q
0r
1s
0t
0u
0v
1w
0x
0y
1z
0{
0|
0}
0~
0!!
0"!
0#!
0$!
0%!
0&!
$end
#20000
b11100000 !
b11110000 !
b11111000 !
b11111010 !
b11111011 !
1b
1_
1h
1a
1e
1~
1c
1d
1&!
1%!
0o
0m
1j
1|
1{
1l
1[
1P
1Q
1C
0Z
0\
1X
1Y
0S
1g
01
17
16
0:
08
1"
1/
1.
19
1o
0l
1v
1r
1G
1K
0[
1\
1:
09
1)
1%
1m
1k
0v
1t
0s
0r
1q
1F
0G
0H
1I
0K
1D
1Z
18
1<
0)
1'
0&
0%
1$
0t
1s
0q
0F
1H
0I
0'
1&
0$
#40000
b1111011 !
b111011 !
b110011 !
b110001 !
0_
0h
0e
0i
0~
0g
0%!
1#!
1"!
1!!
0o
0j
0|
0{
0z
1y
1x
1l
1[
1M
1N
0O
0P
0Q
0C
0\
1T
1U
1V
0X
1S
11
06
14
13
12
0:
0"
0/
0.
0-
1,
1+
19
0m
0k
1v
1u
1t
0s
1q
1F
0H
1I
1J
1K
0D
0Z
08
0<
1)
1(
1'
0&
1$
0u
0t
1s
1r
0q
0F
1G
1H
0I
0J
0(
0'
1&
1%
0$
#60000
b110101 !
b100101 !
b10100101 !
b11100101 !
b11100111 !
1_
1f
0a
1e
1i
1g
0c
0&!
1o
1|
1{
0y
0x
1n
1m
1Z
1]
0M
0N
1P
1Q
1\
0Y
07
1:
1/
1.
0,
0+
1;
18
0m
1j
0o
0v
1u
1t
0r
0G
1I
1J
0K
0\
1C
0Z
08
1"
0:
0)
1(
1'
0%
0t
0s
1r
1G
0H
0I
0'
0&
1%
#80000
b11101111 !
b11111111 !
b11111101 !
0_
1h
1a
0d
1c
1&!
0#!
0"!
0!!
1o
1m
1k
1z
0n
0]
1O
1D
1Z
1\
0T
0U
0V
1Y
1d
17
04
03
02
1:
18
1<
1-
0;
0l
0o
1t
0r
0G
1I
0\
0[
09
0:
1'
0%
1l
0u
0t
0I
0J
1[
19
0(
0'
1v
1u
1t
1q
1F
1I
1J
1K
1)
1(
1'
1$
#100000
b11011101 !
b11011100 !
b11011000 !
b1011000 !
b11000 !
b1000 !
0b
0f
0a
0^
0e
0i
1~
0c
0g
0w
0d
0&!
0|
0{
0z
1o
0m
0k
0D
0Z
1\
0O
0P
0Q
0Y
1L
0S
01
1*
07
0/
0.
0-
1:
08
0<
0o
1m
0j
0l
0v
0t
0q
0F
0I
0K
0[
0C
1Z
0\
0:
18
0"
09
0)
0'
0$
0u
0J
0(
#120000
b1010 !
b1110 !
b1001110 !
1_
1f
1e
1g
1w
1%!
1$!
1o
1}
1z
1y
1N
1O
1R
1\
1W
1X
0L
0*
16
15
1:
10
1-
1,
0m
1j
1s
1H
1C
0Z
08
1"
1&
1t
0s
1q
1F
0H
1I
1'
0&
1$
#140000
b1000110 !
b1100110 !
b1100111 !
b11100111 !
b10100111 !
1b
0h
1^
0e
1i
0~
1d
0g
0%!
0$!
1#!
1"!
1!!
1n
0}
0y
0o
1l
1[
0\
0N
0R
1]
1T
1U
1V
0W
0X
1S
1g
11
06
05
14
13
12
1;
00
0,
0:
19
0l
1m
0j
1u
0t
1r
0q
0F
1G
0I
1J
0C
1Z
0[
09
18
0"
1(
0'
1%
0$
0m
1j
0u
0J
1C
0Z
0p
08
1"
0(
1v
1s
1q
1F
1H
1K
1E
1#
1)
1&
1$
#160000
b10100101 !
b10000101 !
b10000100 !
b100 !
0b
0_
0^
0i
1~
0d
0w
1&!
0!!
0n
0z
1m
1k
0j
0C
1D
1Z
0O
0]
0T
1Y
1L
0S
0g
1p
01
1*
17
02
0;
0-
18
1<
0"
1l
0v
0s
0r
0q
0F
0G
0H
0K
1[
0E
0#
19
0)
0&
0%
0$
0m
0k
1v
1u
1t
1q
1F
1I
1J
1K
0D
0Z
08
0<
1)
1(
1'
1$
0u
0t
1s
1r
0q
0F
1G
1H
0I
0J
0(
0'
1&
1%
0$
#180000
b10100 !
b10000 !
b1010000 !
b1110000 !
b11110000 !
0f
1a
1^
1e
1i
0~
1w
0&!
0#!
0"!
1|
1{
1z
1n
1o
1m
1Z
1\
1]
1O
1P
1Q
0U
0V
0Y
0L
1S
11
0*
07
04
03
1/
1.
1-
1;
1:
18
0v
1u
1t
0r
0G
1I
1J
0K
0)
1(
1'
0%
#200000
b11111000 !
b11111010 !
b10111010 !
b10011010 !
1_
1h
0^
0e
1~
1#!
0m
1j
0|
0{
0z
1y
0l
0[
1N
0O
0P
0Q
1C
0Z
1V
0S
01
14
08
1"
0/
0.
0-
1,
09
0u
0t
0s
1r
1q
1F
1G
0H
0I
0J
0(
0'
0&
1%
1$
#220000
b10011011 !
b10001011 !
b10001111 !
b1111 !
b1101 !
b101101 !
1b
0_
1f
0a
1^
0i
0~
1&!
0#!
1l
1{
0y
1x
1m
0j
0C
1Z
1M
0N
1P
1[
0V
1Y
1S
11
17
04
19
1.
0,
1+
18
0"
1u
1t
1s
0r
0q
0F
0G
1H
1I
1J
1(
1'
1&
0%
0$
#240000
b100101 !
b1100101 !
b1100100 !
b1110100 !
b1110000 !
b11110000 !
b11110010 !
0b
1_
0f
0h
1a
1e
1i
1~
1d
0&!
1$!
1!!
0o
1|
1z
0x
0M
1O
1Q
0\
1T
1W
0Y
0S
1g
0p
01
07
15
12
0:
1/
1-
0+
0l
1v
0u
0t
0s
0H
0I
0J
1K
0[
1E
1p
1#
09
1)
0(
0'
0&
0m
1j
0v
1r
1G
0K
1C
0Z
0E
0p
0#
08
1"
0)
1%
1v
1s
1q
1F
1H
1K
1E
1#
1)
1&
1$
#260000
b11010010 !
b11010011 !
b11010111 !
1b
1f
0^
0~
1c
0w
0d
0$!
1#!
1"!
0n
1l
1}
0|
0{
0z
1o
1\
0O
0P
0Q
1R
1[
0]
1U
1V
0W
1L
1S
1d
1p
11
1*
05
14
13
0;
19
10
0/
0.
0-
1:
0o
0l
0v
1u
0s
0r
0q
0F
0G
0H
1J
0K
0[
0\
0E
0p
0#
0:
09
0)
1(
0&
0%
0$
1l
0u
0J
1[
1E
1p
1#
19
0(
1v
1s
1r
1G
1H
1K
0E
0#
1)
1&
1%
#280000
b11011111 !
b11001111 !
b11101111 !
b11101110 !
b11101010 !
0b
0f
1h
0a
1^
1~
0c
1w
0"!
0!!
0l
1m
1k
0}
1|
1{
1o
1\
1P
1Q
0R
1D
1Z
0[
0T
0U
0L
0S
01
0*
03
02
09
18
1<
00
1/
1.
1:
0o
0v
0r
0G
0K
0\
0:
0)
0%
0s
0H
0&
#300000
b10101010 !
b10101000 !
b10111000 !
b10011000 !
b10011001 !
1b
0_
1a
0^
0e
1c
0d
0g
0#!
1"!
0|
0{
1y
1l
1[
1N
0P
0Q
1U
0V
04
13
0/
0.
1,
19
1o
0l
0m
0k
1v
1u
1t
1q
1F
1I
1J
1K
0D
0Z
0[
1\
1:
09
08
0<
1)
1(
1'
1$
0v
0u
0J
0K
0)
0(
#320000
b10001001 !
0a
0c
0y
1n
1]
0N
0,
1;
0o
0t
1r
1G
0I
0\
0p
0:
0'
1%
1v
1s
1H
1K
1E
1#
1)
1&
#340000
b10001011 !
b10001010 !
0b
1_
1#!
0"!
0n
1o
1\
0]
0U
1V
1p
14
03
0;
1:
0v
1t
0s
0r
0G
0H
1I
0K
0E
0#
0)
1'
0&
0%
#360000
b10000010 !
b10010010 !
b10010000 !
0_
0h
1a
0~
0#!
0o
1m
0j
1y
1n
1]
1N
0C
1Z
0\
0V
1S
11
04
0:
18
0"
1,
1;
0t
1r
0q
0F
1G
0I
0'
1%
0$
#380000
b10010100 !
b11010100 !
b11011100 !
b11001100 !
1f
1h
0a
1e
1~
1g
1&!
1%!
1$!
1!!
0m
1j
1}
1|
1{
0y
1x
0n
0]
1M
0N
1P
1Q
1R
1C
0Z
1T
1W
1X
1Y
0S
0p
01
17
16
15
12
08
1"
10
1/
1.
0,
1+
0;
1m
1k
0r
0G
1D
1Z
1E
1p
1#
18
1<
0%
0E
0#
#400000
b11101100 !
b11101110 !
1_
1^
1d
0&!
0!!
0}
0x
0M
0R
0T
0Y
07
02
00
0+
1l
1[
19
1v
1u
1t
1q
1F
1I
1J
1K
1)
1(
1'
1$
#420000
b1101110 !
b1101111 !
b1101011 !
b101011 !
b100011 !
b11 !
1b
0f
0h
0^
0e
0i
0g
0w
0d
0%!
0$!
1"!
1!!
1n
0j
0|
0{
1o
1\
0P
0Q
0C
1]
1T
1U
0W
0X
1L
1*
06
05
13
12
1;
0"
0/
0.
1:
0m
0k
0l
0v
1s
0q
0F
1H
0K
0[
0D
0Z
08
0<
09
0)
1&
0$
0u
0t
0s
1r
1q
1F
1G
0H
0I
0J
0(
0'
0&
1%
1$
#440000
b1 !
b0 !
b100 !
b1100 !
b101100 !
0b
0_
1f
1h
1^
1w
1&!
1%!
1$!
0"!
0n
1l
1m
1{
1x
1M
1P
1Z
1[
0]
0U
1W
1X
1Y
0L
0*
17
16
15
03
0;
19
18
1.
1+
1u
1t
0r
0q
0F
0G
1I
1J
1(
1'
0%
0$
#460000
b10101100 !
b11101100 !
b11101110 !
b11101010 !
b11100010 !
b11000010 !
1_
0f
0h
0^
1e
1i
0&!
0%!
1}
1|
1Q
1R
0X
0Y
07
06
10
1/
#480000
b11000011 !
b11000001 !
b11001001 !
1b
0_
1h
0$!
1"!
0!!
1n
0o
0m
1j
1C
0Z
0\
1]
0T
1U
0W
05
13
02
1;
0:
08
1"
0t
1r
1G
0I
0'
1%
#500000
b11011001 !
b1011001 !
b1111001 !
b1111000 !
b1111010 !
b1110010 !
0b
1_
0h
1a
1^
0i
1d
0w
1$!
0"!
1!!
0j
0}
0|
0{
1z
1y
1N
1O
0P
0Q
0R
0C
1T
0U
1W
1L
1g
1*
15
03
12
0"
00
0/
0.
1-
1,
0l
0[
0p
09
1m
1k
1v
0u
1s
1q
1F
1H
0J
1K
1D
1Z
1E
1p
1#
18
1<
1)
0(
1&
1$
0v
0s
0q
0F
0H
0K
0E
0#
0)
0&
0$
#520000
b1110110 !
b1100110 !
b1000110 !
b1000111 !
1b
1f
0a
0^
0~
1w
0d
0$!
1#!
1"!
1l
1}
0x
1o
1\
0M
1R
1[
1U
1V
0W
0L
1S
11
0*
05
14
13
19
10
0+
1:
0l
1u
1t
1s
0r
0G
1H
1I
1J
0[
09
1(
1'
1&
0%
1v
0t
0s
0H
0I
1K
1)
0'
0&
#540000
b111 !
b10000111 !
b10000101 !
b10010101 !
b10110101 !
0_
1a
1^
0e
1i
1~
1c
0g
1%!
0#!
0!!
1|
0z
0y
0n
1l
0m
0k
1j
1C
0D
0Z
1[
0]
0N
0O
1Q
0T
0V
1X
0S
1d
01
16
04
02
1/
0-
0,
0;
19
08
0<
1"
0o
1m
0j
0v
0K
0C
1Z
0\
1g
0:
18
0"
0)
0l
1v
1t
1q
1F
1I
1K
0[
09
1)
1'
1$
0m
1j
0v
0u
0t
0q
0F
0I
0J
0K
1C
0Z
0p
08
1"
0)
0(
0'
0$
1E
1#
#560000
b10111101 !
b10111001 !
b11111001 !
b11101001 !
0f
1h
0a
1e
0c
0%!
1m
1k
0}
1{
1n
1]
1P
0R
1D
1Z
0X
0d
1p
06
18
1<
00
1.
1;
1o
1r
1G
1\
0E
0g
0#
1:
1%
1l
1v
1u
0r
0G
1J
1K
1[
19
1)
1(
0%
0m
0k
0v
1t
1s
1H
1I
0K
0D
0Z
0p
08
0<
0)
1'
1&
0u
0t
1r
1q
1F
1G
0I
0J
1E
1#
0(
0'
1%
1$
#580000
b11101011 !
b11001011 !
b11011011 !
1_
1a
0^
0w
1c
1&!
1%!
0"!
1}
0|
0{
0n
0]
0P
0Q
1R
0U
1X
1Y
1L
1d
1p
1*
17
16
03
10
0/
0.
0;
0o
1u
0s
0r
0q
0F
0G
0H
1J
0\
0E
1g
0#
0:
1(
0&
0%
0$
0l
1v
0u
1s
1r
1G
1H
0J
1K
0[
0p
09
1)
0(
1&
1%
1m
1k
0v
0s
0r
0G
0H
0K
1D
1Z
1E
1p
1#
18
1<
0)
0&
0%
0E
0#
#600000
b1011011 !
b1010011 !
b1010111 !
b1010101 !
b1110101 !
b1100101 !
0_
1f
0h
0a
1^
0i
1w
0c
0&!
1"!
1l
0j
0}
1|
1n
1]
1Q
0R
0C
1[
1U
0Y
0L
0d
0p
0*
07
13
19
0"
00
1/
1;
1o
1v
1K
1\
1E
1p
1#
1:
1)
0l
0v
1u
1t
1s
1H
1I
1J
0K
0[
0E
0#
09
0)
1(
1'
1&
1v
0t
0s
0H
0I
1K
1)
0'
0&
#620000
b1100100 !
b1101100 !
b1101000 !
b1111000 !
0b
0f
1h
1a
0g
0w
0%!
0"!
1l
0m
0k
1j
0|
1z
1y
1x
1M
1N
1O
0Q
1C
0D
0Z
1[
0U
0X
1L
0p
1*
06
03
19
08
0<
1"
0/
1-
1,
1+
1m
0j
0v
0u
1s
1r
1q
1F
1G
1H
0J
0K
0C
1Z
1E
1p
1#
18
0"
0)
0(
1&
1%
1$
1u
1t
0r
0q
0F
0G
1I
1J
0E
0#
1(
1'
0%
0$
#640000
b1011000 !
b1011001 !
1b
0^
1c
1w
1"!
0n
1|
0z
0x
0o
0\
0M
0O
1Q
0]
1U
0L
0*
13
0;
1/
0-
0+
0:
1o
1v
0s
1q
1F
0H
1K
1\
1:
1)
0&
1$
0v
0q
0F
0K
0)
0$
#660000
b1011011 !
b1011111 !
b1001111 !
b1101111 !
b1101110 !
0b
1_
1f
0a
1^
0c
1d
1g
1%!
1$!
0"!
0l
0y
0N
0[
0U
1W
1X
16
15
03
09
0,
0o
1l
0m
1j
0u
0t
1s
1H
0I
0J
1C
0Z
1[
0\
0:
19
08
1"
0(
0'
1&
1v
1r
1G
1K
1)
1%
#680000
b101110 !
b10101110 !
b10100110 !
b10100010 !
b10110010 !
b10010010 !
b10010011 !
1b
0f
0h
1a
0^
0e
1i
1c
0g
0d
0%!
0$!
1"!
1!!
0|
1y
1o
1\
1N
0Q
1T
1U
0W
0X
1d
06
05
13
12
0/
1,
1:
0o
1m
0j
0l
0v
1u
0s
0r
0G
0H
1J
0K
0[
0C
1Z
0\
0:
18
0"
09
0)
1(
0&
0%
1l
0u
0J
1[
19
0(
1v
1u
1t
1q
1F
1I
1J
1K
1)
1(
1'
1$
#700000
b10010001 !
b10001 !
b1 !
b0 !
0b
0_
0a
0i
0~
0c
0d
0w
0"!
0!!
1o
0y
0m
0Z
0N
1\
0T
0U
1L
1S
11
1*
03
02
1:
0,
08
0o
0l
0v
0t
0q
0F
0I
0K
0[
0\
0p
0:
09
0)
0'
0$
0u
0J
1E
1#
0(
#720000
b1000 !
b1010 !
b10001010 !
b10011010 !
1_
1h
1a
1i
1~
1w
1#!
1o
1j
1y
1n
1]
1N
1C
1\
1V
0L
0S
1p
01
0*
14
1:
1"
1,
1;
1r
1q
1F
1G
0E
0#
1%
1$
#740000
b10111010 !
b10111011 !
b10111001 !
1b
0_
1^
1c
0#!
1"!
0n
1}
1|
0y
0N
1Q
1R
0]
1U
0V
1d
04
13
0;
10
1/
0,
0o
1t
0r
0G
1I
0\
0p
0:
1'
0%
1l
0t
0q
0F
0I
1[
1E
1p
1#
19
0'
0$
1v
1s
1r
1G
1H
1K
0E
0#
1)
1&
1%
#760000
b10111101 !
b10110101 !
b10100101 !
1f
0h
0a
1g
0c
1%!
0l
1m
0j
0}
0|
1z
1n
1]
1O
0Q
0R
0C
1Z
0[
1X
0d
16
09
18
0"
00
0/
1-
1;
0m
1j
1o
0v
0s
0H
0K
1\
1C
0Z
0g
08
1"
1:
0)
0&
1l
1q
1F
1[
0p
19
1$
1m
0j
1s
1H
0C
1Z
1E
1p
1#
18
0"
1&
1u
1t
0r
0q
0F
0G
1I
1J
0E
0#
1(
1'
0%
0$
#780000
b10000101 !
b10000001 !
0f
0^
0~
1&!
0%!
1#!
1!!
0l
0z
0o
0\
0O
0[
1T
1V
0X
1Y
1S
11
17
06
14
12
09
0-
0:
0u
0t
0s
1r
1G
0H
0I
0J
0(
0'
0&
1%
#800000
b11000001 !
b1000001 !
1e
0i
1}
1z
1y
1l
0m
0Z
1[
1N
1O
1R
10
1-
1,
19
08
1u
1J
1(
#820000
b1 !
0e
0w
0}
0z
0y
0l
0[
0N
0O
0R
1L
0p
1*
00
0-
0,
09
1v
0u
1s
1q
1F
1H
0J
1K
1E
1#
1)
0(
1&
1$
#840000
b100001 !
b100101 !
b10100101 !
b11100101 !
1f
1^
1e
1i
1~
1g
1w
0&!
1%!
0#!
0!!
1|
1{
1o
1m
1Z
1\
1P
1Q
0T
0V
1X
0Y
0L
0S
1p
01
0*
07
16
04
02
1/
1.
1:
18
0m
1j
1u
0s
0r
0q
0F
0G
0H
1J
1C
0Z
0E
0#
08
1"
1(
0&
0%
0$
0v
0u
1r
1q
1F
1G
0J
0K
0)
0(
1%
1$
#860000
b11100100 !
b11100110 !
b11110110 !
0b
1_
1a
1d
0"!
0o
1z
1O
0\
0U
0p
03
0:
1-
1l
1v
1s
1H
1K
1[
1E
1p
1#
19
1)
1&
0v
1u
0s
0q
0F
0H
1J
0K
0E
0#
0)
1(
0&
0$
#880000
b11111110 !
b11011110 !
b11011010 !
b11011011 !
b11011001 !
1b
0_
0f
1h
0^
1c
0d
0w
0%!
1"!
0n
0l
1m
1k
1}
0|
0{
0z
0O
0P
0Q
1R
1D
1Z
0[
0]
1U
0X
1L
0g
1*
06
13
0;
09
18
1<
10
0/
0.
0-
1o
1l
0u
0r
0G
0J
1[
1\
1:
19
0(
0%
0m
0k
1u
1t
1I
1J
0D
0Z
08
0<
1(
1'
0t
0I
0'
#900000
b11011000 !
0b
0c
0"!
1n
1]
0U
0p
03
1;
0o
0u
1s
1r
1q
1F
1G
1H
0J
0\
1E
1p
1#
0:
0(
1&
1%
1$
1u
0s
0q
0F
0H
1J
0E
0#
1(
0&
0$
#920000
b1011000 !
b11000 !
b1000 !
b0 !
b100 !
b110 !
b111 !
1b
1_
1f
0h
0a
0e
0i
0~
1#!
1"!
1!!
1o
0j
0}
0R
0C
1\
1T
1U
1V
1S
0p
11
14
13
12
1:
0"
00
0u
1s
1q
1F
1H
0J
1E
1#
0(
1&
1$
#940000
b100111 !
b1100111 !
b1110111 !
b1110011 !
b1110001 !
0_
0f
1a
1^
1e
1c
1&!
1z
1y
1x
0n
0]
1M
1N
1O
1Y
1d
1p
17
1-
1,
1+
0;
0o
1u
0s
0r
0q
0F
0G
0H
1J
0\
0E
1g
0#
0:
1(
0&
0%
0$
0l
1v
0u
1s
1r
1G
1H
0J
1K
0[
0p
09
1)
0(
1&
1%
1m
1k
0v
0s
0r
0G
0H
0K
1D
1Z
1E
1p
1#
18
1<
0)
0&
0%
0E
0#
#960000
b11110001 !
b11110000 !
b10110000 !
b10110100 !
0b
1f
0e
1i
1~
0c
1w
0!!
1n
1}
1|
0z
0y
0x
0m
0k
1j
1C
0D
0Z
0M
0N
0O
1Q
1R
1]
0T
0L
0S
0d
0p
01
0*
02
1;
10
1/
0-
0,
0+
08
0<
1"
1o
1v
1s
1r
1q
1F
1G
1H
1K
1\
1E
0g
1p
1#
1:
1)
1&
1%
1$
1l
0v
0s
0H
0K
1[
0E
0p
0#
19
0)
0&
1m
0j
1s
1H
0C
1Z
1E
1p
1#
18
0"
1&
1u
1t
0r
0q
0F
0G
1I
1J
0E
0#
1(
1'
0%
0$
#980000
b10100100 !
b100100 !
b100101 !
b100001 !
1b
0f
0a
0i
0~
1!!
0l
0}
0|
1{
1x
0m
0Z
1M
1P
0Q
0R
0[
1T
1S
11
12
09
00
0/
1.
1+
08
0u
0t
0s
1r
1q
1F
1G
0H
0I
0J
0(
0'
0&
1%
1$
