Lab3/simulation/qsim/Lab3.msim.vcd
$comment
	File created using the following command:
		vcd file Lab3.msim.vcd -direction
$end
$date
	Thu Oct 17 15:20:30 2019
$end
$version
	ModelSim Version 10.5b
$end
$timescale
	1ps
$end

$scope module traficlight_vlg_vec_tst $end
$var reg 1 ! CS $end
$var reg 1 " LS $end
$var reg 1 # RR $end
$var reg 1 $ RS $end
$var wire 1 % Cl $end
$var wire 1 & LL $end
$var wire 1 ' RL $end

$scope module i1 $end
$var wire 1 ( gnd $end
$var wire 1 ) vcc $end
$var wire 1 * unknown $end
$var tri1 1 + devclrn $end
$var tri1 1 , devpor $end
$var tri1 1 - devoe $end
$var wire 1 . Cl~output_o $end
$var wire 1 / RL~output_o $end
$var wire 1 0 LL~output_o $end
$var wire 1 1 CS~input_o $end
$var wire 1 2 RR~input_o $end
$var wire 1 3 RS~input_o $end
$var wire 1 4 LS~input_o $end
$var wire 1 5 inst6~0_combout $end
$var wire 1 6 inst8~0_combout $end
$upscope $end
$upscope $end
$enddefinitions $end
#0
$dumpvars
0!
0"
0#
0$
0%
0&
1'
0(
1)
x*
1+
1,
1-
0.
1/
00
01
02
03
04
15
06
$end
#25000
1#
12
#50000
1$
0#
13
02
#75000
1#
12
#100000
1"
0$
0#
14
03
02
16
05
0/
10
1&
0'
#125000
1#
12
#150000
1$
0#
13
02
#175000
1#
12
06
15
1/
00
0&
1'
#200000
1!
0"
0$
0#
04
03
02
11
1.
1%
05
0/
0'
#225000
1#
12
#250000
1$
0#
13
02
#275000
1#
12
#300000
1"
0$
0#
14
03
02
#325000
1#
12
#350000
1$
0#
13
02
#375000
1#
12
#400000
0!
0"
0$
0#
04
03
02
01
0.
0%
15
1/
1'
#425000
1#
12
#450000
1$
0#
13
02
#475000
1#
12
#500000
1"
0$
0#
14
03
02
16
05
0/
10
1&
0'
#525000
1#
12
#550000
1$
0#
13
02
#575000
1#
12
06
15
1/
00
0&
1'
#600000
1!
0"
0$
0#
04
03
02
11
1.
1%
05
0/
0'
#625000
1#
12
#650000
1$
0#
13
02
#675000
1#
12
#700000
1"
0$
0#
14
03
02
#725000
1#
12
#750000
1$
0#
13
02
#775000
1#
12
#800000
0!
0"
0$
0#
04
03
02
01
0.
0%
15
1/
1'
#825000
1#
12
#850000
1$
0#
13
02
#875000
1#
12
#900000
1"
0$
0#
14
03
02
16
05
0/
10
1&
0'
#925000
1#
12
#950000
1$
0#
13
02
#975000
1#
12
06
15
1/
00
0&
1'
